<svg width="171" height="348" viewBox="0 0 171 348" fill="none" xmlns="http://www.w3.org/2000/svg">
<path d="M67.0957 18.5C66.6957 18.5 66.929 17 67.0957 16C63.5954 17 62.6094 27.2546 61.6094 25.2546C60.8094 23.6546 56.5957 20.8333 54.5957 19.5C54.2622 18.3333 53.609 15.3547 53.609 13.7547C48.109 3.25467 59.109 0.754639 62.609 3.75465C67.009 -3.04539 71.109 0.921303 72.609 3.75465C75.2756 2.42132 79.609 2.7547 81.109 7.25465C81.609 14.7547 76.5957 14 73.0957 14C72.5957 17.5 67.5957 18.5 67.0957 18.5Z" fill="#5B2448"/>
<path d="M72.0957 4C71.0957 4.57143 69.8957 6.17143 69.0957 8" stroke="#BB658E" stroke-width="0.5" stroke-linecap="square"/>
<path d="M50.095 19.9996C45.295 24.3996 50.4283 29.4996 53.595 31.4996C53.595 35.8994 49.5955 45.333 47.5957 49.4999L69.5957 51.4999L70.5957 38.4999C71.7624 38.9999 75.4957 39.2999 81.0957 36.4999C86.6957 33.6999 82.0957 28.3332 79.0957 25.9999C78.7624 25.4998 78.0957 24.1997 78.0957 22.9998C80.0957 22.9998 80.0957 21.4999 79.0957 20.9999C78.2957 20.5999 76.7624 18.4999 76.0957 17.4999V13.9998C75.429 13.1665 73.294 13.5042 73.0957 13.9998C72.2957 15.9998 68.7624 17.8332 67.0957 18.4998V15.9998C65.0957 16.4998 63.5957 20.9998 63.0957 22.9998C62.6957 24.5998 61.5957 24.6664 61.0957 24.4996C59.4288 21.1663 53.595 17.4998 50.095 19.9996Z" fill="#F4ADA2"/>
<path d="M57.0957 251.5L48.0957 257.5C49.5957 263.167 52.5957 274.7 52.5957 275.5C52.5957 276.3 57.7624 269.833 61.5957 268.5L65.5957 260V256L57.0957 251.5Z" fill="#F4ADA2"/>
<path d="M74.3869 18L71.0957 20.5495C71.2524 20.8895 72.036 21.3654 73.9167 20.5495C75.7974 19.7337 75.0138 18.5099 74.3869 18Z" fill="#5B2448"/>
<path d="M72.5957 25.5C72.7624 27.1667 74.0957 29.5 77.5957 28" stroke="#AE5489" stroke-linecap="round"/>
<circle cx="68.0957" cy="28" r="3" fill="#EC8E91"/>
<path d="M65.6109 35.1136C65.9019 36.5304 69.0148 37.9909 70.4797 38.6901L70.0903 42.7629C63.1763 40.4613 64.146 34.4143 65.6109 35.1136Z" fill="#5B2448" stroke="#5B2448" stroke-width="0.25"/>
<path d="M42.0947 56.0001L47.5947 49.5001C51.1939 49.5001 64.095 50.8334 70.0957 51.5C69.5957 50.1667 70.0957 47.5 70.0957 47.5C71.2957 47.5 73.929 48.1667 75.0957 48.5001C95.4957 43.7001 112.929 63.5001 119.096 74.0001H121.096C135.596 78.5001 149.596 101 149.596 102C140.396 121.6 120.762 118.833 112.096 115C111.929 116.333 110.696 120.5 107.096 126.5C84.2957 139.3 56.2624 131.833 45.0957 126.5C33.5957 136 8.5957 151.5 10.0957 155.5C2.49567 151.1 0.92837 142.333 1.09472 138.5C-1.07195 133.5 -0.404328 111.5 6.59472 90.0001C16.1947 63.2001 34.2614 56.1667 42.0947 56.0001Z" fill="#FF9E12"/>
<path d="M86.0957 293.5L86.5957 283C104.537 283.63 110.754 281.824 112.265 280.213L112.596 279C112.738 279.355 112.674 279.777 112.265 280.213L106.596 301C104.762 302.5 100.996 305.5 100.596 305.5C100.196 305.5 90.7624 297.5 86.0957 293.5Z" fill="#F4ADA2"/>
<path d="M86.5957 283L86.0957 293.5C90.7624 297.5 100.196 305.5 100.596 305.5C100.996 305.5 104.762 302.5 106.596 301L112.596 279C113.262 280.667 109.396 283.8 86.5957 283Z" stroke="#F4ADA2" stroke-width="0.75" stroke-linecap="round"/>
<path d="M45.0957 127L42.5957 124M42.5957 124C33.429 124.833 12.3957 128.9 1.5957 138.5M42.5957 124C36.929 122.667 22.9957 121.1 12.5957 125.5M42.5957 124C49.429 103.167 58.6957 60.5 41.0957 56.5" stroke="white" stroke-width="0.75"/>
<path d="M70.5951 199.5C60.9951 179.5 56.2617 160.833 55.0951 154L107.595 127C107.428 124.333 111.095 134 126.595 165.5C144.405 201.694 128.095 230 119.095 239C117.762 252.5 114.896 279.8 112.096 281C70.8957 286.6 62.0951 273.333 63.0951 266C63.8969 264.293 64.7465 262.27 65.6036 260C63.1116 259.5 51.5957 247.5 49.0951 241.5C44.2951 223.5 63.6067 221.667 73.8625 223C74.4087 214.194 73.6286 205.82 70.5951 199.5Z" fill="#21594D"/>
<path d="M76.0957 201C75.929 215.667 73.7957 247 66.5957 253" stroke="white" stroke-width="0.5" stroke-linecap="round"/>
<path d="M118.596 239C118.763 226.667 117.496 197.8 111.096 181C104.696 164.2 104.763 153 105.596 149.5" stroke="white" stroke-width="0.5" stroke-linecap="round"/>
<path d="M81.8103 271.041C98.7701 282.25 109.596 281.447 112.096 281C74.5413 288.058 63.1341 275.538 62.1247 268.446C61.62 264.641 67.6776 259.624 81.8103 271.041Z" fill="#5B2448"/>
<path d="M86.5957 274C96.0957 280 106.436 281.167 112.096 281C108.596 282.5 94.5957 283.5 86.0957 283L86.5957 274Z" fill="#9B3C82"/>
<path d="M51.5947 228.5C58.7947 226.1 64.0965 243 66.5947 252.5C65.0965 253 64.0965 257 64.5947 259C49.0957 248 42.5947 231.5 51.5947 228.5Z" fill="#5B2448"/>
<path d="M64.5957 245.5L56.0957 251.5C57.0957 253 62.0957 258.5 65.5957 260L66.5957 252.5L64.5957 245.5Z" fill="#9B3C82"/>
<path d="M45.0957 53C51.929 55.5 65.4465 61.8442 68.0957 63.5C72.0957 66 79.5957 65 70.0957 51.5C76.429 56.1667 86.4957 62.1 76.0957 48.5" stroke="white" stroke-width="0.75" stroke-linecap="round"/>
<path d="M126.595 100.5C126.095 96.5 122.095 75 120.095 74.5C118.095 74 130.595 85.5 136.595 114.5" stroke="white" stroke-linecap="round"/>
<path d="M75.0957 59L70.0957 51.5C73.0957 49.5 81.0957 55 81.5957 56C81.9957 56.8 77.429 58.3333 75.0957 59Z" fill="#9B3C82"/>
<path d="M107.596 125.5L95.0957 119.5C97.0957 103.1 84.2624 73 77.5957 60L82.5957 57.5C83.5957 58.5 105.596 90 109.096 104.5C113.896 116.5 110.096 123.5 107.596 125.5Z" fill="#9B3C82"/>
<path d="M107.596 126.5C93.5957 132.5 77.5957 134.5 71.0957 134.5C71.0957 136.5 71.9957 140.7 75.5957 141.5C79.1957 142.3 100.429 136.167 110.596 133.5L107.596 126.5Z" fill="#5B2448"/>
<path d="M72.5957 158.5C61.3957 153.7 32.5957 151.833 19.5957 151.5L42.5957 128C76.5957 128.5 101.096 152.5 102.096 160C102.896 166 97.0957 160.167 94.0957 156.5C98.8957 174.5 95.7624 174.152 93.5957 171.728C91.9957 175.511 89.929 170.819 89.0957 168C89.8957 172 88.4963 172.152 87.6965 171.728C85.5744 169.964 81.5021 162.317 72.5957 158.5Z" fill="#F4ADA2"/>
<path d="M89.0957 168C88.2624 165.333 85.6957 159.4 82.0957 157" stroke="#AB5088" stroke-width="0.75" stroke-linecap="round"/>
<path d="M90.5957 150C91.929 151.667 94.5957 156.2 94.5957 157" stroke="#AB5088" stroke-width="0.75" stroke-linecap="round"/>
<path d="M93.5957 171.5C93.5957 167 91.7243 157.145 87.0957 153" stroke="#AD5388" stroke-width="0.75" stroke-linecap="round"/>
<path d="M95.1602 139L93.0957 131.364L106.515 127L109.096 134.091L95.1602 139Z" fill="#FFCF2D"/>
<path d="M14.594 149C10.4273 153 4.0957 159.5 18.5961 151.5C23.0955 142 22.4273 147 14.594 149Z" fill="#5B2448"/>
<path d="M19.0957 151.5L14.5957 149C14.9957 147.8 34.429 133.833 44.0957 127L19.0957 151.5Z" fill="#9B3C82"/>
<path d="M49.5957 154C50.7957 150.4 54.7624 141.167 56.5957 137C60.5957 137 68.1958 137.3 66.5958 138.5C64.9958 139.7 60.7624 150.167 59.0957 155C56.0957 154.667 50.3957 153.6 49.5957 154Z" fill="#5B2448"/>
<ellipse cx="62.9726" cy="133.677" rx="8.44355" ry="6.1603" transform="rotate(10.8117 62.9726 133.677)" fill="#5B2448"/>
<ellipse cx="63.1093" cy="133.168" rx="8.23325" ry="5.72563" transform="rotate(10.8117 63.1093 133.168)" fill="white"/>
<path d="M61.0962 136L62.5962 132.5L66.5962 134" stroke="#5B2448" stroke-linecap="round"/>
<path d="M47.5957 258C49.429 256.5 53.2957 253.5 54.0957 253.5L64.0957 272.5L52.0957 279L50.5957 278L47.0957 270L47.5957 258Z" fill="#66B0F0"/>
<path d="M85.5957 292.5C85.2942 290.151 86.0946 287.5 86.0947 285.5L111.096 286.5L107.373 300.683L105.731 301.426L97.0909 300.159L85.5957 292.5Z" fill="#66B0F0"/>
<path d="M48.0957 269.5V257.5C41.5957 260.5 28.3957 266.7 27.5957 267.5C26.7957 268.3 26.2624 271.5 26.0957 273C28.5957 277.5 33.6957 286.8 34.0957 288C34.5957 289.5 48.0957 310.5 53.0957 313C61.8957 309.8 56.7624 289 53.0957 279L48.0957 269.5Z" fill="#5B2448"/>
<path d="M51.5957 255.5C54.2624 261.346 60.0957 272 61.0957 273.5" stroke="white" stroke-linecap="square"/>
<path d="M86.5957 289C92.0957 289 107.596 291.5 109.096 292" stroke="white" stroke-linecap="square"/>
<path d="M34.5957 264C35.5957 265.5 38.2957 268.5 41.0957 268.5C43.8957 268.5 46.2624 271.5 47.0957 273" stroke="white"/>
<path d="M44.5957 283.5C47.2624 282.667 53.5957 282.2 57.5957 287" stroke="#FFCF2D" stroke-width="2" stroke-linecap="round"/>
<path d="M45.0957 288.5C48.429 288 55.5957 288.2 57.5957 293" stroke="#FFCF2D" stroke-width="2" stroke-linecap="round"/>
<path d="M47.0957 295C49.429 294 54.8957 293.2 58.0957 298" stroke="#FFCF2D" stroke-width="2" stroke-linecap="round"/>
<path d="M27.5957 267.5L19.5957 271C21.7624 274.333 28.1957 284 36.5957 296C47.5957 317 55.5957 312.5 53.0957 312.5C50.5957 312.5 40.0957 300.5 40.0957 296C40.0957 291.5 37.0957 285.5 34.0957 281C34.4957 271 29.929 267.833 27.5957 267.5Z" fill="white"/>
<path d="M96.0891 299.027L85.5962 292.5C84.4027 299.559 82.656 313.706 82.8646 314.818C83.0733 315.93 85.4134 318.177 86.5574 319.162C91.683 319.639 102.238 320.68 103.455 321.027C104.975 321.461 129.93 322.175 134.816 319.459C137.143 310.389 117.077 302.883 106.753 300.264L96.0891 299.027Z" fill="#5B2448"/>
<path d="M83.9277 307.065C85.7304 307.086 89.7309 306.551 91.3117 304.24C92.8925 301.929 96.7048 301.67 98.4133 301.829" stroke="white"/>
<path d="M105.668 309.82C106.486 307.149 109.676 301.658 115.897 301.066" stroke="#FFCF2D" stroke-width="2" stroke-linecap="round"/>
<path d="M110.078 312.23C111.547 309.197 115.758 303.394 120.849 304.454" stroke="#FFCF2D" stroke-width="2" stroke-linecap="round"/>
<path d="M116.571 314.249C117.063 311.759 119.489 306.795 125.258 306.864" stroke="#FFCF2D" stroke-width="2" stroke-linecap="round"/>
<path d="M82.8642 314.819L81.2365 323.398C85.211 323.491 96.8218 323.639 111.469 323.48C135.012 326.257 135.815 317.114 134.403 319.177C132.992 321.241 117.159 323.132 113.445 320.592C109.731 318.051 103.085 317.14 97.6766 317.075C89.6486 311.099 84.4567 313.081 82.8642 314.819Z" fill="white"/>
<path d="M144.596 39.9999C144.596 43.5999 130.596 64.8333 123.596 74.9999C129.429 84 142.096 101.5 146.096 99.5C150.096 97.5 161.762 61 167.096 43C170.596 35 170.596 28.5 170.596 26C170.596 24 167.596 20.8333 166.096 19.5C167.096 18.5 169.396 15.2 170.596 10C172.096 3.50001 164.596 10 161.096 16.5C157.596 23 151.596 24.4999 149.596 24.4999C137.096 19.9999 134.096 22.9999 139.596 26.9999C145.096 30.9999 144.596 35.4999 144.596 39.9999Z" fill="#F4ADA2"/>
<path d="M149.596 24.5C152.596 25.5 156.196 29.8 154.596 39" stroke="#A14484" stroke-width="0.75" stroke-linecap="round"/>
<path d="M166.096 19.5C162.429 19.5 154.596 21.3 154.596 30.5C155.096 32 159.096 29.5 161.096 25.5C162.696 22.3 165.429 20.8333 166.596 20.5" stroke="#A14484" stroke-width="0.75" stroke-linecap="round"/>
<path d="M169.095 23C167.261 24.5 163.495 28.1 163.095 30.5M163.095 30.5C161.596 33 155.095 39.5 159.095 28.5M163.095 30.5C162.595 32 161.895 35.2 163.095 36C166.295 36.8 168.429 31.6667 169.096 29" stroke="#A14484" stroke-width="0.75" stroke-linecap="round"/>
</svg>
