<svg width="262" height="189" viewBox="0 0 262 189" fill="none" xmlns="http://www.w3.org/2000/svg">
<path d="M79.5 134.5C82.5 124.5 100.667 108.167 111.5 99L204.5 122H229C233.5 120.167 237 136.5 237 154C231.5 191.5 204 188.5 183.5 187.5C167.1 186.7 150.333 184.167 144 183C138.5 181.5 134 178.5 118.5 178.5C93.7 188.5 62.5 189.333 50 188.5L44.5 161.5L50.5 155C88.5 155 81.9 135.7 79.5 134.5Z" fill="#FDCF6D"/>
<path d="M113.5 152.5C101.5 150.5 85.5 140.667 79 136C84.5 147.5 110.5 171.5 125 170C136.5 168.81 128.5 155 113.5 152.5Z" fill="#5B2448"/>
<path d="M74.5 142L79.5 134.5C83.1 138.9 95.6667 146 101.5 148.5L93 158L74.5 142Z" fill="#F4ADA2"/>
<path d="M133.5 140C140.833 153.667 160.9 181.7 182.5 184.5" stroke="#9B3C82" stroke-opacity="0.3" stroke-width="0.25"/>
<path d="M137.5 122.5C134 131.833 127.9 152.9 131.5 162.5" stroke="#9B3C82" stroke-opacity="0.3" stroke-width="0.25"/>
<path d="M75 141.5L65.5 154C67.8333 156.333 74 159.5 76 160.5C76 165.5 83.1667 164.333 86 165.5L93.5 158L75 141.5Z" fill="#66B0F0"/>
<path d="M98.5 152C93.5 148.5 85 141 79.5 134.5C87 141.5 95.5 145.5 101.5 148.5L98.5 152Z" fill="#9B3C82"/>
<path d="M72 145.5L90.5 160.5" stroke="white"/>
<path d="M88 75.4999C77.6 73.8999 77.3333 71.4999 78.5 70.4999C83.5 69.9999 132 82.4999 141 84.4999C148.2 86.0999 146.667 88.4999 145 89.4999C130.333 85.4999 98.4 77.0999 88 75.4999Z" fill="#9B3C82"/>
<path d="M207 26L203.5 33C210.167 66.1667 227.5 128 235 132C252 132 243 127 242 125C249.5 124 268 115 257.5 98.5C248.5 91 251 83 251 76C256.5 51.5 227.5 44 223.5 44C220.3 44 211.167 32 207 26Z" fill="#5B2448" stroke="#5B2448"/>
<path d="M120.5 69.5L133 74" stroke="#FDCF6D"/>
<path d="M139 78C135.4 84 139.167 82.1667 141.5 80.5L143 80C144.333 81.6667 147.6 84.7 150 83.5C157.5 88 164.5 102.5 170.5 104.5C176.5 106.5 174.5 103.5 176 103.5C177.2 103.5 179.833 101.5 181 100.5L175.5 89C173.833 83 168.1 70.1 158.5 66.5C146.5 62 143.5 70.5 139 78Z" fill="#F4ADA2"/>
<path d="M150 83.5C150.667 83.5 151.8 83.1 151 81.5" stroke="#9B3C82" stroke-width="0.5" stroke-linecap="round"/>
<path d="M152 69.5C149.333 73 143.5 80.1 141.5 80.5" stroke="#9B3C82" stroke-width="0.5" stroke-linecap="round"/>
<path d="M161 73C154.833 72.6667 144 72.9 150 76.5C152.5 77.5 157.5 76 159 82C160 83.5 162.8 86.2 166 85" stroke="#9B3C82" stroke-width="0.5" stroke-linecap="round"/>
<path d="M146 78C149.167 79.1667 155.5 80.8 155.5 78" stroke="#9B3C82" stroke-width="0.5" stroke-linecap="round"/>
<path d="M143.5 79.5C146.5 81.1667 152.6 83.5 153 79.5" stroke="#9B3C82" stroke-width="0.5" stroke-linecap="round"/>
<path d="M142.5 87.5C156.1 95.9 169.167 97.6666 174 97.5C184.5 105.5 201 116.667 208.5 119.5C198 159.5 149 129.5 138.5 117.5C128 105.5 118 102 107.5 100.5C97.0002 99 96.0002 96.5 94.5002 95.5C93.3002 94.7 94.0002 93.1667 94.5002 92.5C92.9002 90.9 93.5002 88.5 94.0002 87.5C92.0002 85.4999 92.5002 83.3333 93.0002 82.5C91.5002 81.1666 88.4002 77.7999 88.0002 74.9999C87.6811 72.7665 90.9463 74.2021 93.6341 75.805C89.9411 71.9698 126.835 77.8243 142.5 87.5Z" fill="#F4ADA2"/>
<path d="M105 80C101.667 79.3333 94.6 77.5 93 75.5" stroke="#9B3C82" stroke-width="0.5" stroke-linecap="round"/>
<path d="M99.5 86.5C97.5 85.8333 93.4 84.1 93 82.5" stroke="#9B3C82" stroke-width="0.5" stroke-linecap="round"/>
<path d="M100 91.5C98.1667 90.8333 94 89.5 94 87.5" stroke="#9B3C82" stroke-width="0.5" stroke-linecap="round"/>
<path d="M100 95.5C98.1667 94.8333 94.5 93.3 94.5 92.5" stroke="#9B3C82" stroke-width="0.5" stroke-linecap="round"/>
<path d="M207.5 122.5L208.5 119.5L210.5 112.5C214.833 113.5 223.2 118 222 122C220.8 126 211.833 124 207.5 122.5Z" fill="#5B2448"/>
<path d="M174 97.5C174.937 98.2062 175.963 98.9801 177.057 99.8025C184.821 104.382 202.332 109.584 211 112L208.5 120C205.232 120.726 187.841 107.907 177.057 99.8025C175.714 99.0105 174.663 98.2371 174 97.5Z" fill="#9B3C82"/>
<path d="M179 14C179.8 14 181.333 11.3333 182 10C182.4 10 193.5 19.3333 199 24C213.4 23.6 208 29.8333 203.5 33L212 54C203.333 61.6667 186.7 73 189.5 57C192.3 41 186.667 35.3333 183.5 34.5C171 35.5 174 26.5 174.5 25.5C175 24.5 178 20 176.5 17C175 14 178 14 179 14Z" fill="#F4ADA2"/>
<path d="M182 10L183 9C189.667 13.6667 201.9 22.9 197.5 22.5C193.1 22.1 185.333 14 182 10Z" fill="#9D3E82"/>
<path d="M197 29.5001C198.333 28.5001 201.6 26.9001 204 28.5001" stroke="#9D3E82" stroke-linecap="round"/>
<path d="M178 24.5C179 25 181.2 25.4 182 23" stroke="#9D3E82" stroke-linecap="round"/>
<path d="M183 14.4999C182.2 12.8999 181.333 14.1666 181 14.9999C182.6 18.5999 184.333 18.4999 185 18C184.667 17.5 183.8 16.0999 183 14.4999Z" fill="#5B2448"/>
<path d="M184.5 35C190.1 37 190.833 49.8334 190.5 56C198.5 56.5 214 56.8 212 54C210 51.2 205.5 38.8334 203.5 33C194.833 32.8334 178.9 33 184.5 35Z" fill="#F4ADA2"/>
<path d="M199 24.0001C195.8 23.2001 187.333 13.6668 183.5 9.00014C185 6.50006 191 0 198 0C211.6 0.4 214.333 11.1668 214.5 16.5001C221.5 19 234.8 28.0001 234 32.0001C233 37.0001 208.5 29.0001 207.5 28.5001C208 23.5001 203 25.0001 199 24.0001Z" fill="#F94F46"/>
<path d="M188 14.5C192.8 10.5 190 5.66667 188 4L183 9L188 14.5Z" fill="#5B2448"/>
<path d="M207.5 28.5C212.3 26.5 214.167 19.6667 214.5 16.5L217 17.5C216.6 23.5 210.5 27.5 207.5 28.5Z" fill="#5B2448"/>
<path d="M192.5 35.9999C196.1 33.1999 187.333 33.8333 183 34.5C185.5 35 188 38.8333 188.5 39.5C192 37.5 192 36.9999 192.5 35.9999Z" fill="#5B2448"/>
<path d="M80 70L101 74" stroke="#FAFAFB"/>
<path d="M39 163L22.5 164V173.5C22.5 175.5 23.5 180 24 181C24.4 181.8 27 185 27.5 186.5L41.5 187.5L39 163Z" fill="#66B0F0"/>
<path d="M44.5 161.5L38 163C38.3333 171.167 39.4 187.5 41 187.5C42.6 187.5 48.3333 188.167 51 188.5L44.5 161.5Z" fill="#F4ADA2"/>
<path d="M180.5 76C178.1 82 175.167 92.8333 174 97.5C195 113.5 215.5 110 222.5 122C232.1 122 239.833 124.333 242.5 125.5C234.5 116.5 222 72.5 212 54H210.5C199.5 40.5 191 55 189 57C187 59 183.5 68.5 180.5 76Z" fill="#21594D"/>
<path d="M210.5 54C210.5 77 224.5 109 222.5 122" stroke="#FDCF6D" stroke-width="0.5"/>
<path d="M0.109619 188.008C4.51071 186.011 20.1104 186.519 28.1104 186.523C21.1175 173.52 24.6142 179.521 23.6232 163.021C22.6322 146.52 8.13843 135.012 3.6387 134.51C0.0389207 134.108 -0.202332 148.675 0.127015 156.008L0.109619 188.008Z" fill="white"/>
<path d="M8.1106 186.513C8.11087 186.013 9.71168 184.613 10.1125 183.014C10.6136 181.014 12.1166 175.515 8.11771 173.513C4.91858 171.911 5.45485 166.511 6.12288 164.012C5.95771 161.178 5.12766 155.011 3.12875 153.01C1.12984 151.009 4.30228 140.511 6.13837 135.512" stroke="#9A3A82"/>
<path d="M14.1108 186.016C14.1119 184.016 16.9142 179.917 18.1144 179.518C19.6146 179.019 20.6184 172.019 23.1184 172.021" stroke="#9A3A82" stroke-linecap="square"/>
<path d="M7.11377 180.012C7.11441 178.838 6.84953 177.8 6.44606 177.072C6.03319 176.328 5.54227 176.011 5.11595 176.011C4.68963 176.011 4.19837 176.327 3.78468 177.071C3.38042 177.798 3.11441 178.836 3.11377 180.01C3.11314 181.184 3.37801 182.222 3.78149 182.949C4.19436 183.693 4.68528 184.011 5.1116 184.011C5.53792 184.011 6.02918 183.694 6.44286 182.951C6.84713 182.224 7.11314 181.186 7.11377 180.012Z" stroke="#9A3A82"/>
<path d="M14.1221 165.516C16.6231 163.684 21.7256 159.02 22.1278 155.02" stroke="#FFC70F" stroke-width="2" stroke-linecap="round"/>
<path d="M12.625 159.515C15.126 157.683 20.2285 153.019 20.6307 149.019" stroke="#FFC70F" stroke-width="2" stroke-linecap="round"/>
<path d="M10.6274 155.514C13.1284 153.682 18.231 149.018 18.6331 145.018" stroke="#FFC70F" stroke-width="2" stroke-linecap="round"/>
<path d="M44.5 188V161.5L51 188.5L44.5 188Z" fill="#9B3C82"/>
<path d="M68.4173 185.887C70.0534 181.339 81.2933 170.51 86.8736 164.778C72.6757 160.725 79.4164 162.403 66.8958 151.61C54.3753 140.817 36.0207 143.185 32.5235 146.061C29.7257 148.362 40.0006 158.69 45.4878 163.566L68.4173 185.887Z" fill="white"/>
<path d="M72.923 179.109C72.5647 178.76 72.6776 176.637 71.8102 175.234C70.7258 173.481 67.8312 168.569 63.6079 170.04C60.2293 171.217 56.732 167.068 55.4056 164.847C53.2591 162.99 48.2591 159.286 45.4309 159.324C42.6028 159.362 37.288 149.768 34.9841 144.967" stroke="#9A3A82"/>
<path d="M76.7495 174.46C75.3164 173.065 74.3317 168.199 74.8821 167.06C75.5702 165.637 71.2519 160.037 72.9957 158.246" stroke="#9A3A82" stroke-linecap="square"/>
<path d="M67.5678 175.291C66.7265 174.472 65.7975 173.938 64.9949 173.721C64.1736 173.498 63.6039 173.629 63.3065 173.934C63.0092 174.24 62.8937 174.813 63.1385 175.628C63.3777 176.424 63.9364 177.338 64.7776 178.157C65.6189 178.976 66.5479 179.51 67.3505 179.728C68.1719 179.951 68.7415 179.82 69.0389 179.514C69.3363 179.209 69.4517 178.636 69.207 177.821C68.9678 177.024 68.409 176.11 67.5678 175.291Z" stroke="#9A3A82"/>
<path d="M62.0605 160.161C62.4907 157.091 62.7043 150.181 60.1171 147.104" stroke="#FFC70F" stroke-width="2" stroke-linecap="round"/>
<path d="M56.7148 157.051C57.145 153.98 57.3586 147.071 54.7714 143.994" stroke="#FFC70F" stroke-width="2" stroke-linecap="round"/>
<path d="M52.4536 155.694C52.8838 152.623 53.0974 145.714 50.5102 142.637" stroke="#FFC70F" stroke-width="2" stroke-linecap="round"/>
<path d="M172.5 101.5C174.667 102.333 179.1 104.5 179.5 106.5" stroke="#9B3C82" stroke-linecap="round"/>
<circle cx="190" cy="25.5" r="4" fill="#EC8E91"/>
<path d="M134 54.5L139 67" stroke="#FDCF6D"/>
<path d="M78.5 70.5L70.5 6L94.5 16.5L101 74L78.5 70.5Z" fill="#FFCF2D"/>
<path d="M80.5 69L73 10L92 18.5L99 73L80.5 69Z" fill="#66B0F0"/>
<path d="M34 163.5L36.5 187" stroke="white"/>
</svg>
